010101000111010101100010011011000110100100100001001000000100111101101100011001010110010000100000011100000110111101101111011011
000110010101101100001000000111010001100101011001010110110000100000001101000011000100110111001100100011011100110110001101110011
010100110111001101000011011000111001001100100011000000110110001100010011011100110010001101100011100000110110001110010011011100
110100001101100011010100110110011000100011011100110100001101110011010100110111001101010011011100110010001100100011000000110110
011000010011011000110001001100100011000000110111001100100011011000111001001101100011100100110111001100110011011100110100001101
110011011000110110001100010011011100110010001101100011000100110010001100000011010000111001001100100011000000110011001100100011
00110011000000110011001100010011001100110101